elasticai/creator_plugins/lutron_filter/examples/xor/wave.vcd
$date
  Mon Jan 20 15:42:31 2025
$end
$version
  GHDL v0
$end
$timescale
  1 fs
$end
$scope module xor_skeleton_tb $end
$comment expected is not handled $end
$comment actual is not handled $end
$var reg 1 ! busy $end
$var reg 1 " rd $end
$var reg 1 # wr $end
$var reg 8 $ data_out[7:0] $end
$var reg 8 % data_in[7:0] $end
$var reg 16 & address_in[15:0] $end
$var reg 1 ' reset $end
$comment last_output is not handled $end
$comment last_input is not handled $end
$scope module skeleton $end
$var reg 1 ( reset $end
$var reg 1 ) rd $end
$var reg 1 * wr $end
$var reg 8 + data_in[7:0] $end
$var reg 16 , address_in[15:0] $end
$comment mw_rx_buffer_bytes_without_offset is not handled $end
$var reg 8 - mw_rx_buffer_v[7:0] $end
$var reg 8 . mw_tx_buffer_v[7:0] $end
$var integer 32 / address_in_i $end
$scope module network_i $end
$var reg 1 0 clk $end
$var reg 1 1 enable $end
$var reg 1 2 rst $end
$var reg 8 3 d_in[7:0] $end
$var reg 8 4 d_out[7:0] $end
$var reg 1 5 done $end
$var reg 2 6 ai_input_v[1:0] $end
$var reg 2 7 ai_input_window[1:0] $end
$var reg 1 8 ai_output_v[0:0] $end
$var reg 1 9 d_out_network[0:0] $end
$var reg 1 : valid_in_network $end
$var reg 1 ; valid_out_network $end
$var reg 1 < valid_in_sr $end
$var reg 1 = valid_out_sr $end
$var reg 1 > valid_out_sw $end
$var reg 1 ? rst_network $end
$var reg 1 @ valid_in $end
$scope module network_i $end
$var reg 1 A rst $end
$upscope $end
$scope module padder $end
$var reg 1 B d_in[0:0] $end
$var reg 8 C d_out[7:0] $end
$upscope $end
$upscope $end
$upscope $end
$upscope $end
$enddefinitions $end
#0
1!
0"
0#
bUUUUUUUU $
bUUUUUUUU %
bUUUUUUUUUUUUUUUU &
0'
0(
0)
0*
bUUUUUUUU +
bUUUUUUUUUUUUUUUU ,
bUUUUUUUU -
b0000000U .
b0 /
10
U1
02
bUUUUUUUU 3
b0000000U 4
05
bUU 6
bUU 7
bU 8
bX 9
U:
U;
U<
0=
U>
U?
U@
0A
bU B
b0000000U C
#2000
00
#4000
10
#6000
00
#8000
10
#10000
00
#12000
10
#14000
00
#16000
1#
b00000000 %
b0000000000010000 &
1*
b00000000 +
b0000000000010000 ,
b10000 /
10
#18000
00
#20000
0#
0*
10
01
0:
0;
0<
0>
0@
#22000
00
#24000
10
#26000
00
#28000
1'
1(
b00000000 .
10
12
b00000000 4
b0 8
1A
b0 B
b00000000 C
#30000
00
#32000
10
#34000
00
#36000
0'
0(
10
02
0A
#38000
00
#40000
10
#42000
00
#44000
1#
b0000000000010010 &
1*
b0000000000010010 ,
b10010 /
10
#46000
00
#48000
b00000000 -
10
b00000000 3
b00 6
b00 7
b0 9
#50000
00
#52000
b0000000000010011 &
b0000000000010011 ,
b10011 /
10
#54000
00
#56000
10
#58000
00
#60000
b11111111 %
b0000000000010000 &
b11111111 +
b0000000000010000 ,
b10000 /
10
#62000
00
#64000
0#
0*
10
11
1:
1;
1<
1>
1@
#66000
00
#68000
0!
1"
b0000000000010010 &
1)
b0000000000010010 ,
b10010 /
10
15
0:
0;
0<
1=
0>
0@
#70000
00
#72000
b00000000 $
10
#74000
00
#76000
10
#78000
00
#80000
10
#82000
00
#84000
0"
1#
b00000000 %
b0000000000010000 &
0)
1*
b00000000 +
b0000000000010000 ,
b10000 /
10
#86000
00
#88000
10
01
#90000
00
#92000
0#
0*
10
#94000
00
#96000
10
#98000
00
#100000
1!
1'
1(
10
12
05
0=
1A
#102000
00
#104000
10
#106000
00
#108000
0'
0(
10
02
0A
#110000
00
#112000
10
#114000
00
#116000
1#
b00000001 %
b0000000000010010 &
1*
b00000001 +
b0000000000010010 ,
b10010 /
10
#118000
00
#120000
b00000001 -
10
b00000001 3
b01 6
b01 7
b1 9
#122000
00
#124000
b00000000 %
b0000000000010011 &
b00000000 +
b0000000000010011 ,
b10011 /
10
#126000
00
#128000
10
#130000
00
#132000
b11111111 %
b0000000000010000 &
b11111111 +
b0000000000010000 ,
b10000 /
10
#134000
00
#136000
0#
0*
10
11
1:
1;
1<
1>
1@
#138000
00
#140000
0!
1"
b0000000000010010 &
1)
b0000000000010010 ,
b00000001 .
b10010 /
10
b00000001 4
15
b1 8
0:
0;
0<
1=
0>
0@
b1 B
b00000001 C
#142000
00
#144000
b00000001 $
10
#146000
00
#148000
10
#150000
00
#152000
10
#154000
00
#156000
0"
1#
b00000000 %
b0000000000010000 &
0)
1*
b00000000 +
b0000000000010000 ,
b10000 /
10
#158000
00
#160000
10
01
#162000
00
#164000
0#
0*
10
#166000
00
#168000
10
#170000
00
#172000
1!
1'
1(
b00000000 .
10
12
b00000000 4
05
b0 8
0=
1A
b0 B
b00000000 C
#174000
00
#176000
10
#178000
00
#180000
0'
0(
10
02
0A
#182000
00
#184000
10
#186000
00
#188000
1#
b00000010 %
b0000000000010010 &
1*
b00000010 +
b0000000000010010 ,
b10010 /
10
#190000
00
#192000
b00000010 -
10
b00000010 3
b10 6
b10 7
#194000
00
#196000
b00000001 %
b0000000000010011 &
b00000001 +
b0000000000010011 ,
b10011 /
10
#198000
00
#200000
10
#202000
00
#204000
b11111111 %
b0000000000010000 &
b11111111 +
b0000000000010000 ,
b10000 /
10
#206000
00
#208000
0#
0*
10
11
1:
1;
1<
1>
1@
#210000
00
#212000
0!
1"
b0000000000010010 &
1)
b0000000000010010 ,
b00000001 .
b10010 /
10
b00000001 4
15
b1 8
0:
0;
0<
1=
0>
0@
b1 B
b00000001 C
#214000
00
#216000
10
#218000
00
#220000
10
#222000
00
#224000
10
#226000
00
#228000
0"
1#
b00000000 %
b0000000000010000 &
0)
1*
b00000000 +
b0000000000010000 ,
b10000 /
10
#230000
00
#232000
10
01
#234000
00
#236000
0#
0*
10
#238000
00
#240000
10
#242000
00
#244000
1!
1'
1(
b00000000 .
10
12
b00000000 4
05
b0 8
0=
1A
b0 B
b00000000 C
#246000
00
#248000
10
#250000
00
#252000
0'
0(
10
02
0A
#254000
00
#256000
10
#258000
00
#260000
1#
b00000011 %
b0000000000010010 &
1*
b00000011 +
b0000000000010010 ,
b10010 /
10
#262000
00
#264000
b00000011 -
10
b00000011 3
b11 6
b11 7
b0 9
#266000
00
#268000
b00000001 %
b0000000000010011 &
b00000001 +
b0000000000010011 ,
b10011 /
10
#270000
00
#272000
10
#274000
00
#276000
b11111111 %
b0000000000010000 &
b11111111 +
b0000000000010000 ,
b10000 /
10
#278000
00
#280000
0#
0*
10
11
1:
1;
1<
1>
1@
#282000
00
#284000
0!
1"
b0000000000010010 &
1)
b0000000000010010 ,
b10010 /
10
15
0:
0;
0<
1=
0>
0@
#286000
00
#288000
b00000000 $
10
#290000
00
#292000
10
#294000
00
#296000
10
#298000
00
#300000
0"
1#
b00000000 %
b0000000000010000 &
0)
1*
b00000000 +
b0000000000010000 ,
b10000 /
10
